{
  "project_info": {
    "project_number": "404199887124",
    "firebase_url": "https://userauthentication-62e6b.firebaseio.com",
    "project_id": "userauthentication-62e6b",
    "storage_bucket": "userauthentication-62e6b.appspot.com"
  },
  "client": [
    {
      "client_info": {
        "mobilesdk_app_id": "1:404199887124:android:c2a52a2867e98cce",
        "android_client_info": {
          "package_name": "com.jamshid.userauthentication"
        }
      },
      "oauth_client": [
        {
          "client_id": "404199887124-eoivl97dpbo8fjv82aouk1mrok0qa919.apps.googleusercontent.com",
          "client_type": 1,
          "android_info": {
            "package_name": "com.jamshid.userauthentication",
            "certificate_hash": "8c0c4e3de6bf20ed7f0c7bf249c86599248c8cf6"
          }
        },
        {
          "client_id": "404199887124-597cemgpr0f7ti6v6vlvu573osrunsis.apps.googleusercontent.com",
          "client_type": 3
        }
      ],
      "api_key": [
        {
          "current_key": "AIzaSyCnP6omyQsWXd5aYEVjbkdl9Yut087Vj5g"
        }
      ],
      "services": {
        "analytics_service": {
          "status": 1
        },
        "appinvite_service": {
          "status": 2,
          "other_platform_oauth_client": [
            {
              "client_id": "404199887124-597cemgpr0f7ti6v6vlvu573osrunsis.apps.googleusercontent.com",
              "client_type": 3
            }
          ]
        },
        "ads_service": {
          "status": 2
        }
      }
    }
  ],
  "configuration_version": "1"
}