{
  "project_info": {
    "project_number": "316157286073",
    "firebase_url": "https://lets-walk-5474d.firebaseio.com",
    "project_id": "lets-walk-5474d",
    "storage_bucket": "lets-walk-5474d.appspot.com"
  },
  "client": [
    {
      "client_info": {
        "mobilesdk_app_id": "1:316157286073:android:acdd6dd963b4ca64",
        "android_client_info": {
          "package_name": "com.jamshid.letswalk"
        }
      },
      "oauth_client": [
        {
          "client_id": "316157286073-vqou9etdn11nai1al1lvqi25e42o53ji.apps.googleusercontent.com",
          "client_type": 1,
          "android_info": {
            "package_name": "com.jamshid.letswalk",
            "certificate_hash": "8c0c4e3de6bf20ed7f0c7bf249c86599248c8cf6"
          }
        },
        {
          "client_id": "316157286073-qcn9rbtlatl4ea9qip4lablm95h429cs.apps.googleusercontent.com",
          "client_type": 3
        }
      ],
      "api_key": [
        {
          "current_key": "AIzaSyDj3BH66GKM_aQJwnU4KvZbVcmfHkNNtiE"
        }
      ],
      "services": {
        "analytics_service": {
          "status": 1
        },
        "appinvite_service": {
          "status": 2,
          "other_platform_oauth_client": [
            {
              "client_id": "316157286073-qcn9rbtlatl4ea9qip4lablm95h429cs.apps.googleusercontent.com",
              "client_type": 3
            }
          ]
        },
        "ads_service": {
          "status": 2
        }
      }
    }
  ],
  "configuration_version": "1"
}